<?xml version="1.0" encoding="utf-8"?>
<!-- Generator: Adobe Illustrator 16.0.0, SVG Export Plug-In . SVG Version: 6.00 Build 0)  -->
<!DOCTYPE svg PUBLIC "-//W3C//DTD SVG 1.1//EN" "http://www.w3.org/Graphics/SVG/1.1/DTD/svg11.dtd">
<svg version="1.1" id="Layer_1" xmlns="http://www.w3.org/2000/svg" xmlns:xlink="http://www.w3.org/1999/xlink" x="0px" y="0px"
	 width="32px" height="32px" viewBox="56 56 32 32" enable-background="new 56 56 32 32" xml:space="preserve">
<g>
	<path d="M85.632,56H58.363c-1.303,0-2.362,1.033-2.362,2.307V85.69c0,1.275,1.059,2.31,2.362,2.31h27.269
		c1.306,0,2.369-1.034,2.369-2.31V58.307C88.001,57.033,86.938,56,85.632,56z M65.492,83.269h-4.746V67.997h4.746V83.269z
		 M63.12,65.909c-1.521,0-2.753-1.233-2.753-2.752c0-1.518,1.231-2.751,2.753-2.751c1.517,0,2.75,1.233,2.75,2.751
		C65.87,64.676,64.637,65.909,63.12,65.909z M83.269,83.269h-4.743v-7.427c0-1.771-0.032-4.05-2.466-4.05
		c-2.471,0-2.849,1.93-2.849,3.922v7.555h-4.743V67.997h4.553v2.086h0.062c0.634-1.201,2.182-2.467,4.491-2.467
		c4.806,0,5.693,3.163,5.693,7.275V83.269L83.269,83.269z"/>
</g>
</svg>
