<?xml version="1.0" encoding="utf-8"?>
<!-- Generator: Adobe Illustrator 16.0.0, SVG Export Plug-In . SVG Version: 6.00 Build 0)  -->
<!DOCTYPE svg PUBLIC "-//W3C//DTD SVG 1.1//EN" "http://www.w3.org/Graphics/SVG/1.1/DTD/svg11.dtd">
<svg version="1.1" id="Layer_1" xmlns="http://www.w3.org/2000/svg" xmlns:xlink="http://www.w3.org/1999/xlink" x="0px" y="0px"
	 width="32px" height="32px" viewBox="130 130 32 32" enable-background="new 130 130 32 32" xml:space="preserve">
<path d="M140.001,159.001c12.076,0,18.68-10.005,18.68-18.681c0-0.284,0-0.567-0.019-0.849c1.284-0.929,2.394-2.08,3.274-3.398
	c-1.198,0.531-2.469,0.879-3.771,1.033c1.37-0.82,2.396-2.111,2.887-3.631c-1.289,0.765-2.699,1.304-4.169,1.594
	c-2.486-2.644-6.646-2.771-9.289-0.285c-1.706,1.604-2.429,3.993-1.9,6.273c-5.278-0.265-10.197-2.758-13.53-6.86
	c-1.743,3-0.853,6.837,2.032,8.764c-1.044-0.031-2.066-0.313-2.979-0.822c0,0.027,0,0.055,0,0.083c0,3.125,2.204,5.817,5.267,6.436
	c-0.967,0.264-1.981,0.303-2.964,0.112c0.86,2.675,3.325,4.507,6.133,4.56c-2.325,1.827-5.196,2.819-8.153,2.816
	c-0.522-0.001-1.044-0.033-1.563-0.095c3.002,1.927,6.496,2.948,10.063,2.944"/>
</svg>
